{
  "defaultSeverity": "error",
  "extends": ["tslint:recommended"],
  "jsRules": {},
  "rules": {
    "interface-name": [true, "never-prefix"],
    "member-access": [true, "no-public"],
    "object-literal-sort-keys": false
  },
  "rulesDirectory": []
}